{
  "_fv": 60,
  "_type": "musicdisc",
  "definition": {
    "name": "Dragonborn Disc",
    "rarity": "COMMON",
    "texture": "dragonborndisc",
    "description": "Music like a Dragon Killer",
    "creativeTab": {
      "value": "CUSTOM:Heroforge"
    },
    "specialInformation": {
      "fixedValue": []
    },
    "glowCondition": {
      "fixedValue": false
    },
    "music": {
      "value": "CUSTOM:dragonborn"
    },
    "lengthInTicks": 1000,
    "analogOutput": 0
  }
}