{
  "dragonborn": {
    "subtitle": "subtitles.dragonborn",
    "sounds": [
      {
        "name": "heroaddonsfo:dragonborn",
        "stream": true
      }
    ]
  },
  "welcome": {
    "subtitle": "subtitles.welcome",
    "sounds": [
      {
        "name": "heroaddonsfo:welcome",
        "stream": false
      }
    ]
  }
}